{"ShapeArray" :
[
{ "className" :  "eg.edu.alexu.csd.oop.draw.RoundRectangle", 
"x" : " -1 ",
"y" : " -1 ",
"Length" : " 0.0 ",
"ArcWidth" : " 0.0 ",
"ArcLength" : " 0.0 ",
"Width" : " 0.0 ",
"color" : " -1 ""fillcolor" : " -1 "
},
{ "className" :  "eg.edu.alexu.csd.oop.draw.]
}
